^D:\SKILLBOX\UNREAL ENGINE 4\ЗАДАЧИ\ДЗ 17\SKILLBOX_HOMEWORK_17\SKILLBOX_HOMEWORK_17.CPP
D:\SKILLBOX\UNREAL ENGINE 4\Задачи\ДЗ 17\SKILLBOX_HOMEWORK_17\X64\DEBUG\VC143.PDB
D:\SKILLBOX\UNREAL ENGINE 4\Задачи\ДЗ 17\SKILLBOX_HOMEWORK_17\X64\DEBUG\VC143.IDB
D:\SKILLBOX\UNREAL ENGINE 4\Задачи\ДЗ 17\SKILLBOX_HOMEWORK_17\X64\DEBUG\SKILLBOX_HOMEWORK_17.OBJ
